CONVERGED_TIME at time 1 after  15 steps. Range [0.9569,3.0021]
CONVERGED_TIME at time 1 after  29 steps. Range [0.9591,3.0020]
CONVERGED_TIME at time 1 after  53 steps. Range [0.9606,3.0018]
CONVERGED_TIME at time 1 after  97 steps. Range [0.9616,3.0018]
