  0 KSP Residual norm 698.472 
  1 KSP Residual norm 248.227 
  2 KSP Residual norm 116.545 
  3 KSP Residual norm 63.1326 
  4 KSP Residual norm 37.6071 
  5 KSP Residual norm 23.1464 
  6 KSP Residual norm 14.2386 
  7 KSP Residual norm 8.87714 
  8 KSP Residual norm 5.51255 
  9 KSP Residual norm 3.43635 
 10 KSP Residual norm 2.12513 
 11 KSP Residual norm 1.32036 
 12 KSP Residual norm 0.826129 
 13 KSP Residual norm 0.510203 
 14 KSP Residual norm 0.317671 
 15 KSP Residual norm 0.196744 
 16 KSP Residual norm 0.122689 
 17 KSP Residual norm 0.0773925 
 18 KSP Residual norm 0.0492907 
 19 KSP Residual norm 0.032465 
 20 KSP Residual norm 0.0228932 
 21 KSP Residual norm 0.0182767 
 22 KSP Residual norm 0.0173914 
 23 KSP Residual norm 0.0203535 
 24 KSP Residual norm 0.0276166 
 25 KSP Residual norm 0.0402762 
 26 KSP Residual norm 0.0575687 
 27 KSP Residual norm 0.0751219 
 28 KSP Residual norm 0.0818537 
 29 KSP Residual norm 0.0706663 
 30 KSP Residual norm 0.0526472 
 31 KSP Residual norm 0.0354652 
 32 KSP Residual norm 0.0226294 
 33 KSP Residual norm 0.0139441 
 34 KSP Residual norm 0.00874895 
 35 KSP Residual norm 0.0054218 
 36 KSP Residual norm 0.00333941 
 37 KSP Residual norm 0.00203496 
 38 KSP Residual norm 0.00126722 
 39 KSP Residual norm 0.000803382 
 40 KSP Residual norm 0.000494425 
Norm of error 0.000180295, Iterations 40
